{
  "title": "Requests.ActiveStudentRequestActions",
  "model": "StudyProgramRegisterActions",
  "searchExpression": "(indexof(candidate/person/familyName, '${text}') ge 0 or indexof(candidate/inscriptionNumber, '${text}') ge 0  or indexof(candidate/person/givenName, '${text}') ge 0 or indexof(studyProgram/name, '${text}') ge 0)",
  "selectable": false,
  "multipleSelect": true,
  "columns": [
    {
      "name": "id",
      "property": "id",
      "title": "ID",
      "hidden": true
    },
    {
      "name": "candidate/person/familyName",
      "property": "familyName",
      "title": "Requests.FullName",
      "formatter": "TemplateFormatter",
      "formatString": "${familyName} ${givenName}"
    },
    {
      "name": "candidate/person/givenName",
      "property": "givenName",
      "title": "Requests.GivenName",
      "hidden": true
    },
    {
      "name": "candidate/id",
      "property": "candidateIdentifier",
      "title": "Register.CandidateId",
      "hidden": true
    },
    {
      "name": "studyProgram/name",
      "property": "studyProgramName",
      "title": "Register.StudyProgram"
    },
    {
      "name": "specialization/abbreviation",
      "property": "specialtyAbbreviation",
      "title": "Register.StudyProgramSpecialty"
    },
    {
      "name": "inscriptionYear/alternateName",
      "property": "inscriptionYear",
      "title": "Register.InscriptionYear"
    },
    {
      "name": "dateCreated",
      "property": "dateCreated",
      "title": "Requests.CreationDate",
      "formatter": "DateTimeFormatter",
      "formatString": "short",
      "hidden": true
    },
    {
      "name": "endTime",
      "property": "endTime",
      "title": "Register.DateSubmitted",
      "formatter": "DateTimeFormatter",
      "formatString": "short"
    },
    {
      "name": "dateModified",
      "property": "dateModified",
      "title": "Requests.DateModified",
      "formatter": "DateTimeFormatter",
      "formatString": "short"
    },
    {
      "name": "agent/name",
      "property": "agentName",
      "title": "Register.Agent"
    },
    {
      "name": "actionStatus/alternateName",
      "property": "actionStatus",
      "title": "Register.Status",
      "formatters": [
        {
            "formatter": "TranslationFormatter",
            "formatString": "Register.ActionStatusTypes.${value}"
        },
        {
            "formatter": "NgClassFormatter",
            "formatOptions": {
                "ngClass": {
                    "text-danger": "'${actionStatus}'==='CancelledActionStatus' || '${actionStatus}'==='FailedActionStatus'",
                    "text-primary": "'${actionStatus}'==='ActiveActionStatus' || '${actionStatus}'==='PotentialActionStatus'",
                    "text-success": "'${actionStatus}'==='CompletedActionStatus'"
                }
            }
        }
    ]
    },
    {
      "name": "owner",
      "property": "owner",
      "title": "Register.Owner",
      "hidden": true
    },
    {
      "name": "reviews/id",
      "property": "myReview",
      "virtual": true,
      "formatters": [
        {
          "formatter": "TemplateFormatter",
          "formatString": "${reviews && Array.isArray(reviews) && reviews.length > 0 ? reviews.map(review=> review.createdBy.id).find(id => id === 0)? '<i class=\"far fa-eye text-indigo\"></i>' : '-' : '-'}"
        }
      ],
      "title": "Register.Grade"
    },
    {
      "name": "reviews/id",
      "property": "avgGrade",
      "virtual": true,
      "formatters": [
        {
          "formatter": "TemplateFormatter",
          "formatString": "${reviews && Array.isArray(reviews) && reviews.length > 0 ? reviews.map(review=> review.reviewRating).reduce((a, b) => a + b, 0) / reviews.length : '-'}"
        }
      ],
      "title": "Register.AvgGrade"
    },
    {
      "name": "id",
      "property": "altId",
      "placeholder": "Register.Edit",
      "formatter": "ButtonFormatter",
      "formatString": "#/candidates/item/${id}/edit",
      "className": "text-center",
      "formatOptions": {
        "buttonContent": "<i class=\"far fa-eye text-indigo\"></i>",
        "buttonClass": "btn btn-default",
        "commands": [
          {
            "outlets": {
              "modal": [
                "item",
                "${id}",
                "edit"
              ]
            }
          }
        ],
        "navigationExtras": {
          "replaceUrl": false,
          "skipLocationChange": true
        }
      }
    },
    {
      "name": "candidate/person/email",
      "property": "email",
      "title": "Email",
      "hidden": true
    },
    {
      "name": "studyProgramEnrollmentEvent/inscriptionYear/id",
      "property": "inscriptionYearId",
      "title": "Register.InscriptionYearId",
      "hidden": true
    },
    {
      "name": "candidate/department/currentYear/id",
      "property": "currentYear",
      "title": "Register.CurrentYearId",
      "hidden": true
    },
    {
      "name": "candidate/inscriptionMode/alternateName",
      "property": "inscriptionModeAlternateName",
      "title": "Register.InscriptionMode",
      "hidden": true,
      "optional": true
    },
    {
      "name": "studyProgramEnrollmentEvent",
      "property": "studyProgramEnrollmentEvent",
      "title": "Register.InscriptionMode",
      "hidden": true
    }
  ],
  "defaults": {
    "orderBy": "dateCreated desc",
    "expand": "studyProgramEnrollmentEvent"
  },
  "paths": [],
  "criteria": [
    {
      "name": "candidateName",
      "filter": "(indexof(candidate/person/email, '${value}') ge 0 or indexof(candidate/person/familyName, '${value}') ge 0 or indexof(candidate/person/givenName, '${value}') ge 0)",
      "type": "text"
    },
    {
      "name": "actionStatus",
      "filter": "(actionStatus/alternateName eq '${value}')",
      "type": "text"
    },
    {
      "name": "startTime",
      "filter": "(startTime eq '${value}')",
      "type": "text"
    },
    {
      "name": "inscriptionNumber",
      "filter": "(candidate/inscriptionNumber eq '${value}')",
      "type": "text"
    },
    {
      "name": "inscriptionYear",
      "filter": "(candidate/inscriptionYear/id eq '${value}')",
      "type": "text"
    },
    {
      "name": "inscriptionPeriod",
      "filter": "(candidate/inscriptionPeriod/id eq '${value}')",
      "type": "text"
    },
    {
      "name": "inscriptionMode",
      "filter": "(${(Array.isArray(value) ? value : [value]).map(val => 'candidate/inscriptionMode/id eq ' + \"'\" + val + \"'\").join(' or ')})",
      "type": "text"
    },
    {
      "name": "studyProgram",
      "filter": "(studyProgram eq ${value})",
      "type": "text"
    }
  ],
  "searches": []
}
